DAQ_FPGAcodes/fifo_sim/ async_fifo_tb.vcd
$date
	Sun Nov 05 11:08:05 2023
$end
$version
	ModelSim Version 10.5
$end
$timescale
	1ns
$end

$scope module fifo_async_tb $end
$var reg 1 ! tb_rst_n $end
$var reg 1 " tb_wr_clk $end
$var reg 1 # tb_wr_en $end
$var reg 32 $ tb_din [31:0] $end
$var reg 1 % tb_rd_clk $end
$var reg 1 & tb_rd_en $end
$var wire 1 ' tb_valid $end
$var wire 1 ( tb_dout [31] $end
$var wire 1 ) tb_dout [30] $end
$var wire 1 * tb_dout [29] $end
$var wire 1 + tb_dout [28] $end
$var wire 1 , tb_dout [27] $end
$var wire 1 - tb_dout [26] $end
$var wire 1 . tb_dout [25] $end
$var wire 1 / tb_dout [24] $end
$var wire 1 0 tb_dout [23] $end
$var wire 1 1 tb_dout [22] $end
$var wire 1 2 tb_dout [21] $end
$var wire 1 3 tb_dout [20] $end
$var wire 1 4 tb_dout [19] $end
$var wire 1 5 tb_dout [18] $end
$var wire 1 6 tb_dout [17] $end
$var wire 1 7 tb_dout [16] $end
$var wire 1 8 tb_dout [15] $end
$var wire 1 9 tb_dout [14] $end
$var wire 1 : tb_dout [13] $end
$var wire 1 ; tb_dout [12] $end
$var wire 1 < tb_dout [11] $end
$var wire 1 = tb_dout [10] $end
$var wire 1 > tb_dout [9] $end
$var wire 1 ? tb_dout [8] $end
$var wire 1 @ tb_dout [7] $end
$var wire 1 A tb_dout [6] $end
$var wire 1 B tb_dout [5] $end
$var wire 1 C tb_dout [4] $end
$var wire 1 D tb_dout [3] $end
$var wire 1 E tb_dout [2] $end
$var wire 1 F tb_dout [1] $end
$var wire 1 G tb_dout [0] $end
$var wire 1 H tb_empty $end
$var wire 1 I tb_full $end

$scope task delay $end
$var reg 32 J num [31:0] $end
$upscope $end

$scope task delay1 $end
$var reg 32 K num [31:0] $end
$upscope $end

$scope module dut1_fifo_async $end
$var parameter 32 L data_width $end
$var parameter 32 M data_depth $end
$var parameter 32 N addr_width $end
$var wire 1 O rst_n $end
$var wire 1 P wr_clk $end
$var wire 1 Q wr_en $end
$var wire 1 R din [31] $end
$var wire 1 S din [30] $end
$var wire 1 T din [29] $end
$var wire 1 U din [28] $end
$var wire 1 V din [27] $end
$var wire 1 W din [26] $end
$var wire 1 X din [25] $end
$var wire 1 Y din [24] $end
$var wire 1 Z din [23] $end
$var wire 1 [ din [22] $end
$var wire 1 \ din [21] $end
$var wire 1 ] din [20] $end
$var wire 1 ^ din [19] $end
$var wire 1 _ din [18] $end
$var wire 1 ` din [17] $end
$var wire 1 a din [16] $end
$var wire 1 b din [15] $end
$var wire 1 c din [14] $end
$var wire 1 d din [13] $end
$var wire 1 e din [12] $end
$var wire 1 f din [11] $end
$var wire 1 g din [10] $end
$var wire 1 h din [9] $end
$var wire 1 i din [8] $end
$var wire 1 j din [7] $end
$var wire 1 k din [6] $end
$var wire 1 l din [5] $end
$var wire 1 m din [4] $end
$var wire 1 n din [3] $end
$var wire 1 o din [2] $end
$var wire 1 p din [1] $end
$var wire 1 q din [0] $end
$var wire 1 r rd_clk $end
$var wire 1 s rd_en $end
$var reg 1 t valid $end
$var reg 32 u dout [31:0] $end
$var wire 1 H empty $end
$var wire 1 I full $end
$var reg 3 v wr_addr_ptr [2:0] $end
$var reg 3 w rd_addr_ptr [2:0] $end
$var wire 1 x wr_addr [1] $end
$var wire 1 y wr_addr [0] $end
$var wire 1 z rd_addr [1] $end
$var wire 1 { rd_addr [0] $end
$var wire 1 | wr_addr_gray [2] $end
$var wire 1 } wr_addr_gray [1] $end
$var wire 1 ~ wr_addr_gray [0] $end
$var reg 3 !! wr_addr_gray_d1 [2:0] $end
$var reg 3 "! wr_addr_gray_d2 [2:0] $end
$var wire 1 #! rd_addr_gray [2] $end
$var wire 1 $! rd_addr_gray [1] $end
$var wire 1 %! rd_addr_gray [0] $end
$var reg 3 &! rd_addr_gray_d1 [2:0] $end
$var reg 3 '! rd_addr_gray_d2 [2:0] $end

$scope begin write_ram $end
$var integer 32 (! i $end

$scope begin write_ram_init $end
$upscope $end
$upscope $end
$upscope $end
$upscope $end
$enddefinitions $end
#0
$dumpvars
1!
0"
0#
b0 $
0%
0&
b11 J
bx K
xt
bx u
bx v
bx w
bx !!
bx "!
bx &!
bx '!
b100000 L
b100 M
b10 N
bx (!
x'
xG
xF
xE
xD
xC
xB
xA
x@
x?
x>
x=
x<
x;
x:
x9
x8
x7
x6
x5
x4
x3
x2
x1
x0
x/
x.
x-
x,
x+
x*
x)
x(
xH
xI
xy
xx
x{
xz
x~
x}
x|
x%!
x$!
x#!
0s
0r
0q
0p
0o
0n
0m
0l
0k
0j
0i
0h
0g
0f
0e
0d
0c
0b
0a
0`
0_
0^
0]
0\
0[
0Z
0Y
0X
0W
0V
0U
0T
0S
0R
0Q
0P
1O
$end
#10
1%
1r
0t
0'
#20
0%
0r
#30
1%
1r
#40
1"
0%
1P
0r
#41
0!
b1 J
0O
b0 (!
b1 (!
b10 (!
b11 (!
b100 (!
b0 u
b0 v
b0 w
0{
0z
0%!
0$!
0#!
0y
0x
0~
0}
0|
0G
0F
0E
0D
0C
0B
0A
0@
0?
0>
0=
0<
0;
0:
09
08
07
06
05
04
03
02
01
00
0/
0.
0-
0,
0+
0*
0)
0(
#50
1%
1r
b0 !!
#60
0%
0r
#70
1%
1r
b0 "!
1H
#80
0"
0%
0P
0r
#90
1%
1r
#100
0%
0r
#110
1%
1r
#120
1"
0%
1P
0r
b0 (!
b1 (!
b10 (!
b11 (!
b100 (!
b0 &!
#121
1!
1O
#130
1%
1r
#140
0%
0r
#150
1%
1r
#160
0"
0%
0P
0r
#170
1%
1r
#180
0%
0r
#190
1%
1r
#200
1"
0%
1P
0r
b0 '!
0I
#201
1#
b1010101010101010 $
1Q
1p
1n
1l
1j
1h
1f
1d
1b
#210
1%
1r
#220
0%
0r
#230
1%
1r
#240
0"
0%
0P
0r
#250
1%
1r
#260
0%
0r
#270
1%
1r
#280
1"
0%
1P
0r
b1 v
1y
1~
#281
0#
b101 J
0Q
#290
1%
1r
b1 !!
#300
0%
0r
#310
1%
1r
b1 "!
0H
#320
0"
0%
0P
0r
#330
1%
1r
#340
0%
0r
#350
1%
1r
#360
1"
0%
1P
0r
#370
1%
1r
#380
0%
0r
#390
1%
1r
#400
0"
0%
0P
0r
#410
1%
1r
#420
0%
0r
#430
1%
1r
#440
1"
0%
1P
0r
#450
1%
1r
#460
0%
0r
#470
1%
1r
#480
0"
0%
0P
0r
#490
1%
1r
#500
0%
0r
#510
1%
1r
#520
1"
0%
1P
0r
#530
1%
1r
#540
0%
0r
#550
1%
1r
#560
0"
0%
0P
0r
#570
1%
1r
#580
0%
0r
#590
1%
1r
#600
1"
0%
1P
0r
#610
1%
1r
#620
0%
0r
#630
1%
1r
#640
0"
0%
0P
0r
#650
1%
1r
#660
0%
0r
#670
1%
1r
#680
1"
0%
1P
0r
#681
1&
b1 K
1s
#690
1%
1r
b1010101010101010 u
1t
b1 w
1'
1{
1%!
1F
1D
1B
1@
1>
1<
1:
18
1H
#691
0&
b101 K
0s
#700
0%
0r
#710
1%
1r
0t
0'
#720
0"
0%
0P
0r
#730
1%
1r
#740
0%
0r
#750
1%
1r
#760
1"
0%
1P
0r
b1 &!
#770
1%
1r
#780
0%
0r
#790
1%
1r
#791
1#
b1011101110111011 $
b1 J
1Q
1q
1m
1i
1e
#800
0"
0%
0P
0r
#810
1%
1r
#820
0%
0r
#830
1%
1r
#840
1"
0%
1P
0r
b10 v
b1 '!
0y
1x
1}
#841
0#
b101 J
0Q
#850
1%
1r
b11 !!
#860
0%
0r
#870
1%
1r
b11 "!
0H
#880
0"
0%
0P
0r
#890
1%
1r
#900
0%
0r
#910
1%
1r
#920
1"
0%
1P
0r
#930
1%
1r
#940
0%
0r
#950
1%
1r
#960
0"
0%
0P
0r
#970
1%
1r
#980
0%
0r
#990
1%
1r
#1000
1"
0%
1P
0r
#1010
1%
1r
#1020
0%
0r
#1030
1%
1r
#1040
0"
0%
0P
0r
#1050
1%
1r
#1060
0%
0r
#1070
1%
1r
#1080
1"
0%
1P
0r
#1090
1%
1r
#1100
0%
0r
#1110
1%
1r
#1120
0"
0%
0P
0r
#1130
1%
1r
#1140
0%
0r
#1150
1%
1r
#1160
1"
0%
1P
0r
#1170
1%
1r
#1180
0%
0r
#1190
1%
1r
#1200
0"
0%
0P
0r
#1210
1%
1r
#1220
0%
0r
#1230
1%
1r
#1240
1"
0%
1P
0r
#1241
1#
b1100110011001100 $
b1 J
1Q
0q
0p
1o
0m
0l
1k
0i
0h
1g
0e
0d
1c
#1250
1%
1r
#1260
0%
0r
#1270
1%
1r
#1280
0"
0%
0P
0r
#1290
1%
1r
#1300
0%
0r
#1310
1%
1r
#1320
1"
0%
1P
0r
b11 v
1y
0~
#1321
0#
b101 J
0Q
#1330
1%
1r
b10 !!
#1340
0%
0r
#1350
1%
1r
b10 "!
#1360
0"
0%
0P
0r
#1370
1%
1r
#1380
0%
0r
#1390
1%
1r
#1400
1"
0%
1P
0r
#1410
1%
1r
#1420
0%
0r
#1430
1%
1r
#1440
0"
0%
0P
0r
#1450
1%
1r
#1460
0%
0r
#1470
1%
1r
#1480
1"
0%
1P
0r
#1490
1%
1r
#1500
0%
0r
#1510
1%
1r
#1520
0"
0%
0P
0r
#1530
1%
1r
#1540
0%
0r
#1550
1%
1r
#1560
1"
0%
1P
0r
#1570
1%
1r
#1580
0%
0r
#1590
1%
1r
#1600
0"
0%
0P
0r
#1610
1%
1r
#1620
0%
0r
#1630
1%
1r
#1640
1"
0%
1P
0r
#1650
1%
1r
#1660
0%
0r
#1670
1%
1r
#1680
0"
0%
0P
0r
#1690
1%
1r
#1700
0%
0r
#1710
1%
1r
#1720
1"
0%
1P
0r
#1721
1#
b1101110111011101 $
b1 J
1Q
1q
1m
1i
1e
#1730
1%
1r
#1740
0%
0r
#1750
1%
1r
#1760
0"
0%
0P
0r
#1770
1%
1r
#1780
0%
0r
#1790
1%
1r
#1800
1"
0%
1P
0r
b100 v
0y
0x
1|
#1801
0#
b101 J
0Q
#1810
1%
1r
b110 !!
#1820
0%
0r
#1830
1%
1r
b110 "!
#1840
0"
0%
0P
0r
#1850
1%
1r
#1860
0%
0r
#1870
1%
1r
#1880
1"
0%
1P
0r
#1890
1%
1r
#1900
0%
0r
#1910
1%
1r
#1920
0"
0%
0P
0r
#1930
1%
1r
#1940
0%
0r
#1950
1%
1r
#1960
1"
0%
1P
0r
#1970
1%
1r
#1980
0%
0r
#1990
1%
1r
#2000
0"
0%
0P
0r
#2010
1%
1r
#2020
0%
0r
#2030
1%
1r
#2040
1"
0%
1P
0r
#2050
1%
1r
#2060
0%
0r
#2070
1%
1r
#2080
0"
0%
0P
0r
#2090
1%
1r
#2100
0%
0r
#2110
1%
1r
#2120
1"
0%
1P
0r
#2130
1%
1r
#2140
0%
0r
#2150
1%
1r
#2160
0"
0%
0P
0r
#2170
1%
1r
#2180
0%
0r
#2190
1%
1r
#2200
1"
0%
1P
0r
#2201
1#
b1110111011101110 $
b1 J
1Q
0q
1p
0m
1l
0i
1h
0e
1d
#2210
1%
1r
#2220
0%
0r
#2230
1%
1r
#2240
0"
0%
0P
0r
#2250
1%
1r
#2260
0%
0r
#2270
1%
1r
#2280
1"
0%
1P
0r
b101 v
1y
1~
1I
#2281
0#
b101 J
0Q
#2290
1%
1r
b111 !!
#2300
0%
0r
#2310
1%
1r
b111 "!
